"","country","Year","Age","total","Male","Female","percent","pctMale","pctFemale","sexratio","ord"
"1","UK",1955,"",NA,NA,NA,NA,NA,NA,NA,1
"2","UK",1960,"",NA,NA,NA,NA,NA,NA,NA,2
"3","UK",1965,"",NA,NA,NA,NA,NA,NA,NA,3
"4","UK",1970,"",NA,NA,NA,NA,NA,NA,NA,4
"5","UK",1975,"",NA,NA,NA,NA,NA,NA,NA,5
"6","UK",1980,"",NA,NA,NA,NA,NA,NA,NA,6
"7","UK",1985,"",NA,NA,NA,NA,NA,NA,NA,7
"8","UK",1990,"",NA,NA,NA,NA,NA,NA,NA,8
"10","UK",1995,"0-4",3824272,1960595,1863677,6.6,6.9,6.3,105.2,9
"11","UK",1995,"5-9",3857031,1982339,1874692,6.6,7,6.3,105.7,10
"12","UK",1995,"10-14",3641755,1872688,1769067,6.3,6.6,6,105.9,11
"13","UK",1995,"15-19",3470860,1784249,1686611,6,6.3,5.7,105.8,12
"14","UK",1995,"20-24",3943819,2019284,1924535,6.8,7.1,6.5,104.9,13
"15","UK",1995,"25-29",4567943,2318123,2249820,7.9,8.1,7.6,103,14
"16","UK",1995,"30-34",4620016,2298856,2321160,7.9,8.1,7.8,99,15
"17","UK",1995,"35-39",4123098,2079942,2043156,7.1,7.3,6.9,101.8,16
"18","UK",1995,"40-44",3761030,1883562,1877468,6.5,6.6,6.3,100.3,17
"19","UK",1995,"45-49",4094659,2043951,2050708,7,7.2,6.9,99.7,18
"20","UK",1995,"50-54",3313945,1648747,1665198,5.7,5.8,5.6,99,19
"21","UK",1995,"55-59",2999368,1484250,1515118,5.2,5.2,5.1,98,20
"22","UK",1995,"60-64",2778354,1351424,1426930,4.8,4.7,4.8,94.7,21
"23","UK",1995,"65-69",2652818,1242387,1410431,4.6,4.4,4.7,88.1,22
"24","UK",1995,"70-74",2475136,1086824,1388312,4.3,3.8,4.7,78.3,23
"25","UK",1995,"75-79",1725119,685813,1039306,3,2.4,3.5,66,24
"26","UK",1995,"80-84",1308189,453292,854897,2.2,1.6,2.9,53,25
"27","UK",1995,"85-89",705499,195821,509678,1.2,0.7,1.7,38.4,26
"28","UK",1995,"90-94",264755,54735,210020,0.5,0.2,0.7,26.1,27
"29","UK",1995,"95-99",52310,7712,44598,0.1,0,0.2,17.3,28
"30","UK",1995,"100+",6828,812,6016,0,0,0,13.5,29
"32","UK",2000,"0-4",3569216,1826732,1742484,6,6.3,5.8,104.8,30
"33","UK",2000,"5-9",3834272,1964667,1869605,6.5,6.8,6.2,105.1,31
"34","UK",2000,"10-14",3868233,1987070,1881163,6.5,6.8,6.3,105.6,32
"35","UK",2000,"15-19",3720178,1910130,1810048,6.3,6.6,6,105.5,33
"36","UK",2000,"20-24",3604927,1845703,1759224,6.1,6.4,5.8,104.9,34
"37","UK",2000,"25-29",4030023,2062286,1967737,6.8,7.1,6.5,104.8,35
"38","UK",2000,"30-34",4599782,2336137,2263645,7.8,8,7.5,103.2,36
"39","UK",2000,"35-39",4647136,2314866,2332270,7.9,8,7.8,99.3,37
"40","UK",2000,"40-44",4144175,2092800,2051375,7,7.2,6.8,102,38
"41","UK",2000,"45-49",3735714,1867371,1868343,6.3,6.4,6.2,99.9,39
"42","UK",2000,"50-54",4026166,2001880,2024286,6.8,6.9,6.7,98.9,40
"43","UK",2000,"55-59",3224419,1593163,1631256,5.5,5.5,5.4,97.7,41
"44","UK",2000,"60-64",2862667,1398879,1463788,4.8,4.8,4.9,95.6,42
"45","UK",2000,"65-69",2565296,1221597,1343699,4.3,4.2,4.5,90.9,43
"46","UK",2000,"70-74",2328886,1053085,1275801,3.9,3.6,4.2,82.5,44
"47","UK",2000,"75-79",1997330,825538,1171792,3.4,2.8,3.9,70.5,45
"48","UK",2000,"80-84",1231401,446191,785210,2.1,1.5,2.6,56.8,46
"49","UK",2000,"85-89",756819,227878,528941,1.3,0.8,1.8,43.1,47
"50","UK",2000,"90-94",308073,71376,236697,0.5,0.2,0.8,30.2,48
"51","UK",2000,"95-99",75896,12981,62915,0.1,0,0.2,20.6,49
"52","UK",2000,"100+",9360,1167,8193,0,0,0,14.2,50
"54","UK",2005,"0-4",3437003,1764003,1673000,5.7,5.9,5.5,105.4,51
"55","UK",2005,"5-9",3583941,1837270,1746671,5.9,6.1,5.7,105.2,52
"56","UK",2005,"10-14",3849770,1975609,1874161,6.4,6.6,6.1,105.4,53
"57","UK",2005,"15-19",4034384,2070849,1963535,6.7,6.9,6.4,105.5,54
"58","UK",2005,"20-24",3985709,2042518,1943191,6.6,6.8,6.3,105.1,55
"59","UK",2005,"25-29",3756637,1921478,1835159,6.2,6.4,6,104.7,56
"60","UK",2005,"30-34",4107028,2102038,2004990,6.8,7,6.6,104.8,57
"61","UK",2005,"35-39",4670466,2372344,2298122,7.7,7.9,7.5,103.2,58
"62","UK",2005,"40-44",4709092,2346409,2362683,7.8,7.9,7.7,99.3,59
"63","UK",2005,"45-49",4139266,2088322,2050944,6.8,7,6.7,101.8,60
"64","UK",2005,"50-54",3662630,1823495,1839135,6.1,6.1,6,99.1,61
"65","UK",2005,"55-59",3912634,1933201,1979433,6.5,6.5,6.5,97.7,62
"66","UK",2005,"60-64",3082364,1506571,1575793,5.1,5,5.1,95.6,63
"67","UK",2005,"65-69",2666621,1280932,1385689,4.4,4.3,4.5,92.4,64
"68","UK",2005,"70-74",2295851,1063983,1231868,3.8,3.6,4,86.4,65
"69","UK",2005,"75-79",1929473,832596,1096877,3.2,2.8,3.6,75.9,66
"70","UK",2005,"80-84",1465090,562968,902122,2.4,1.9,2.9,62.4,67
"71","UK",2005,"85-89",746351,243169,503182,1.2,0.8,1.6,48.3,68
"72","UK",2005,"90-94",344825,90815,254010,0.6,0.3,0.8,35.8,69
"73","UK",2005,"95-99",93626,19087,74539,0.2,0.1,0.2,25.6,70
"74","UK",2005,"100+",14586,2232,12354,0,0,0,18.1,71
"76","UK",2010,"0-4",3793324,1943340,1849984,6.1,6.3,5.9,105,72
"77","UK",2010,"5-9",3448501,1768998,1679503,5.5,5.7,5.3,105.3,73
"78","UK",2010,"10-14",3596295,1842751,1753544,5.8,6,5.6,105.1,74
"79","UK",2010,"15-19",3989674,2039985,1949689,6.4,6.6,6.2,104.6,75
"80","UK",2010,"20-24",4327763,2208825,2118938,6.9,7.1,6.7,104.2,76
"81","UK",2010,"25-29",4180180,2140080,2040100,6.7,6.9,6.5,104.9,77
"82","UK",2010,"30-34",3830300,1965243,1865057,6.1,6.4,5.9,105.4,78
"83","UK",2010,"35-39",4175625,2143012,2032613,6.7,6.9,6.5,105.4,79
"84","UK",2010,"40-44",4728020,2406814,2321206,7.6,7.8,7.4,103.7,80
"85","UK",2010,"45-49",4708869,2344827,2364042,7.6,7.6,7.5,99.2,81
"86","UK",2010,"50-54",4073241,2046493,2026748,6.5,6.6,6.4,101,82
"87","UK",2010,"55-59",3573855,1767867,1805988,5.7,5.7,5.7,97.9,83
"88","UK",2010,"60-64",3765928,1842113,1923815,6,6,6.1,95.8,84
"89","UK",2010,"65-69",2901739,1396827,1504912,4.7,4.5,4.8,92.8,85
"90","UK",2010,"70-74",2419895,1137504,1282391,3.9,3.7,4.1,88.7,86
"91","UK",2010,"75-79",1943279,867725,1075554,3.1,2.8,3.4,80.7,87
"92","UK",2010,"80-84",1464179,596096,868083,2.3,1.9,2.8,68.7,88
"93","UK",2010,"85-89",924209,326743,597466,1.5,1.1,1.9,54.7,89
"94","UK",2010,"90-94",366515,107801,258714,0.6,0.3,0.8,41.7,90
"95","UK",2010,"95-99",116063,27732,88331,0.2,0.1,0.3,31.4,91
"96","UK",2010,"100+",20993,3909,17084,0,0,0.1,22.9,92
"98","UK",2015,"0-4",3863751,1980160,1883591,6,6.2,5.8,105.1,93
"99","UK",2015,"5-9",3805749,1950203,1855546,5.9,6.1,5.8,105.1,94
"100","UK",2015,"10-14",3462025,1776508,1685517,5.4,5.6,5.2,105.4,95
"101","UK",2015,"15-19",3723637,1905293,1818344,5.8,6,5.6,104.8,96
"102","UK",2015,"20-24",4228105,2155187,2072918,6.6,6.8,6.4,104,97
"103","UK",2015,"25-29",4480744,2285105,2195639,7,7.2,6.8,104.1,98
"104","UK",2015,"30-34",4248460,2178460,2070000,6.6,6.8,6.4,105.2,99
"105","UK",2015,"35-39",3896282,2002645,1893637,6.1,6.3,5.9,105.8,100
"106","UK",2015,"40-44",4232610,2175118,2057492,6.6,6.8,6.4,105.7,101
"107","UK",2015,"45-49",4722668,2401934,2320734,7.4,7.5,7.2,103.5,102
"108","UK",2015,"50-54",4636557,2300825,2335732,7.2,7.2,7.3,98.5,103
"109","UK",2015,"55-59",3978407,1987995,1990412,6.2,6.2,6.2,99.9,104
"110","UK",2015,"60-64",3443641,1687570,1756071,5.4,5.3,5.5,96.1,105
"111","UK",2015,"65-69",3553767,1714391,1839376,5.5,5.4,5.7,93.2,106
"112","UK",2015,"70-74",2651370,1250223,1401147,4.1,3.9,4.3,89.2,107
"113","UK",2015,"75-79",2070499,939309,1131190,3.2,2.9,3.5,83,108
"114","UK",2015,"80-84",1499426,633456,865970,2.3,2,2.7,73.1,109
"115","UK",2015,"85-89",955488,358229,597259,1.5,1.1,1.9,60,110
"116","UK",2015,"90-94",471495,150003,321492,0.7,0.5,1,46.7,111
"117","UK",2015,"95-99",134285,35172,99113,0.2,0.1,0.3,35.5,112
"118","UK",2015,"100+",29256,6136,23120,0,0,0.1,26.5,113
"120","UK",2020,"0-4",3899509,1998574,1900935,5.9,6.1,5.8,105.1,114
"121","UK",2020,"5-9",3876406,1987153,1889253,5.9,6.1,5.7,105.2,115
"122","UK",2020,"10-14",3819300,1957708,1861592,5.8,6,5.6,105.2,116
"123","UK",2020,"15-19",3589804,1839299,1750505,5.5,5.6,5.3,105.1,117
"124","UK",2020,"20-24",3963029,2021136,1941893,6,6.2,5.9,104.1,118
"125","UK",2020,"25-29",4381974,2232039,2149935,6.7,6.8,6.5,103.8,119
"126","UK",2020,"30-34",4549283,2323588,2225695,6.9,7.1,6.7,104.4,120
"127","UK",2020,"35-39",4314100,2215547,2098553,6.6,6.8,6.4,105.6,121
"128","UK",2020,"40-44",3956552,2036763,1919789,6,6.2,5.8,106.1,122
"129","UK",2020,"45-49",4233279,2173703,2059576,6.4,6.6,6.2,105.5,123
"130","UK",2020,"50-54",4652375,2358325,2294050,7.1,7.2,7,102.8,124
"131","UK",2020,"55-59",4533951,2237802,2296149,6.9,6.8,7,97.5,125
"132","UK",2020,"60-64",3840128,1901576,1938552,5.8,5.8,5.9,98.1,126
"133","UK",2020,"65-69",3257115,1574417,1682698,5,4.8,5.1,93.6,127
"134","UK",2020,"70-74",3256572,1538820,1717752,5,4.7,5.2,89.6,128
"135","UK",2020,"75-79",2288775,1042431,1246344,3.5,3.2,3.8,83.6,129
"136","UK",2020,"80-84",1619695,695556,924139,2.5,2.1,2.8,75.3,130
"137","UK",2020,"85-89",1001066,389474,611592,1.5,1.2,1.9,63.7,131
"138","UK",2020,"90-94",508625,170525,338100,0.8,0.5,1,50.4,132
"139","UK",2020,"95-99",181319,50429,130890,0.3,0.2,0.4,38.5,133
"140","UK",2020,"100+",38260,8464,29796,0.1,0,0.1,28.4,134
"142","UK",2025,"0-4",3847892,1972201,1875691,5.7,5.9,5.6,105.1,135
"143","UK",2025,"5-9",3912371,2005685,1906686,5.8,6,5.7,105.2,136
"144","UK",2025,"10-14",3890078,1994714,1895364,5.8,6,5.6,105.2,137
"145","UK",2025,"15-19",3946984,2020398,1926586,5.9,6,5.7,104.9,138
"146","UK",2025,"20-24",3829819,1955558,1874261,5.7,5.8,5.6,104.3,139
"147","UK",2025,"25-29",4118022,2098762,2019260,6.1,6.3,6,103.9,140
"148","UK",2025,"30-34",4451672,2271290,2180382,6.6,6.8,6.5,104.2,141
"149","UK",2025,"35-39",4615023,2360691,2254332,6.9,7,6.7,104.7,142
"150","UK",2025,"40-44",4373461,2249039,2124422,6.5,6.7,6.3,105.9,143
"151","UK",2025,"45-49",3961378,2037827,1923551,5.9,6.1,5.7,105.9,144
"152","UK",2025,"50-54",4171228,2134727,2036501,6.2,6.4,6,104.8,145
"153","UK",2025,"55-59",4552080,2295514,2256566,6.8,6.9,6.7,101.7,146
"154","UK",2025,"60-64",4382837,2143662,2239175,6.5,6.4,6.6,95.7,147
"155","UK",2025,"65-69",3640715,1778937,1861778,5.4,5.3,5.5,95.6,148
"156","UK",2025,"70-74",2994413,1418369,1576044,4.5,4.2,4.7,90,149
"157","UK",2025,"75-79",2823979,1288899,1535080,4.2,3.8,4.6,84,150
"158","UK",2025,"80-84",1814979,783060,1031919,2.7,2.3,3.1,75.9,151
"159","UK",2025,"85-89",1105162,436784,668378,1.6,1.3,2,65.3,152
"160","UK",2025,"90-94",550543,190879,359664,0.8,0.6,1.1,53.1,153
"161","UK",2025,"95-99",206850,59750,147100,0.3,0.2,0.4,40.6,154
"162","UK",2025,"100+",54237,12393,41844,0.1,0,0.1,29.6,155
"164","UK",2030,"0-4",3742714,1918366,1824348,5.5,5.6,5.3,105.2,156
"165","UK",2030,"5-9",3860965,1979436,1881529,5.6,5.8,5.5,105.2,157
"166","UK",2030,"10-14",3926152,2013299,1912853,5.7,5.9,5.6,105.3,158
"167","UK",2030,"15-19",4017889,2057459,1960430,5.9,6,5.7,104.9,159
"168","UK",2030,"20-24",4186650,2136345,2050305,6.1,6.3,6,104.2,160
"169","UK",2030,"25-29",3985514,2033659,1951855,5.8,6,5.7,104.2,161
"170","UK",2030,"30-34",4189090,2138945,2050145,6.1,6.3,6,104.3,162
"171","UK",2030,"35-39",4518620,2309163,2209457,6.6,6.8,6.4,104.5,163
"172","UK",2030,"40-44",4674134,2394022,2280112,6.8,7,6.6,105,164
"173","UK",2030,"45-49",4376351,2248846,2127505,6.4,6.6,6.2,105.7,165
"174","UK",2030,"50-54",3905111,2002260,1902851,5.7,5.9,5.5,105.2,166
"175","UK",2030,"55-59",4082639,2078586,2004053,6,6.1,5.8,103.7,167
"176","UK",2030,"60-64",4403281,2200956,2202325,6.4,6.5,6.4,99.9,168
"177","UK",2030,"65-69",4163534,2009308,2154226,6.1,5.9,6.3,93.3,169
"178","UK",2030,"70-74",3357464,1608447,1749017,4.9,4.7,5.1,92,170
"179","UK",2030,"75-79",2610851,1195360,1415491,3.8,3.5,4.1,84.4,171
"180","UK",2030,"80-84",2256229,975253,1280976,3.3,2.9,3.7,76.1,172
"181","UK",2030,"85-89",1265173,502397,762776,1.8,1.5,2.2,65.9,173
"182","UK",2030,"90-94",626395,219763,406632,0.9,0.6,1.2,54,174
"183","UK",2030,"95-99",233602,69099,164503,0.3,0.2,0.5,42,175
"184","UK",2030,"100+",68155,15685,52470,0.1,0,0.2,29.9,176
"186","UK",2035,"0-4",3677016,1884753,1792263,5.3,5.5,5.1,105.2,177
"187","UK",2035,"5-9",3755986,1925717,1830269,5.4,5.6,5.3,105.2,178
"188","UK",2035,"10-14",3874859,1987111,1887748,5.6,5.7,5.4,105.3,179
"189","UK",2035,"15-19",4054097,2076111,1977986,5.8,6,5.7,105,180
"190","UK",2035,"20-24",4257691,2173467,2084224,6.1,6.3,6,104.3,181
"191","UK",2035,"25-29",4341990,2214122,2127868,6.3,6.4,6.1,104.1,182
"192","UK",2035,"30-34",4057472,2074438,1983034,5.8,6,5.7,104.6,183
"193","UK",2035,"35-39",4257579,2177817,2079762,6.1,6.3,6,104.7,184
"194","UK",2035,"40-44",4579087,2343350,2235737,6.6,6.8,6.4,104.8,185
"195","UK",2035,"45-49",4676086,2393257,2282829,6.7,6.9,6.6,104.8,186
"196","UK",2035,"50-54",4316570,2211014,2105556,6.2,6.4,6,105,187
"197","UK",2035,"55-59",3824627,1950997,1873630,5.5,5.6,5.4,104.1,188
"198","UK",2035,"60-64",3950915,1993897,1957018,5.7,5.8,5.6,101.9,189
"199","UK",2035,"65-69",4187053,2065889,2121164,6,6,6.1,97.4,190
"200","UK",2035,"70-74",3849318,1821102,2028216,5.5,5.3,5.8,89.8,191
"201","UK",2035,"75-79",2942407,1363756,1578651,4.2,3.9,4.5,86.4,192
"202","UK",2035,"80-84",2103847,912953,1190894,3,2.6,3.4,76.7,193
"203","UK",2035,"85-89",1589994,631771,958223,2.3,1.8,2.8,65.9,194
"204","UK",2035,"90-94",738130,259561,478569,1.1,0.8,1.4,54.2,195
"205","UK",2035,"95-99",276421,81953,194468,0.4,0.2,0.6,42.1,196
"206","UK",2035,"100+",82380,18960,63420,0.1,0.1,0.2,29.9,197
"208","UK",2040,"0-4",3685625,1889215,1796410,5.3,5.4,5.1,105.2,198
"209","UK",2040,"5-9",3690430,1892189,1798241,5.3,5.4,5.1,105.2,199
"210","UK",2040,"10-14",3769993,1933454,1836539,5.4,5.5,5.2,105.3,200
"211","UK",2040,"15-19",4002969,2050019,1952950,5.7,5.9,5.5,105,201
"212","UK",2040,"20-24",4294070,2192218,2101852,6.1,6.3,6,104.3,202
"213","UK",2040,"25-29",4413219,2251343,2161876,6.3,6.4,6.1,104.1,203
"214","UK",2040,"30-34",4413685,2254672,2159013,6.3,6.5,6.1,104.4,204
"215","UK",2040,"35-39",4126975,2113957,2013018,5.9,6.1,5.7,105,205
"216","UK",2040,"40-44",4320027,2213253,2106774,6.2,6.3,6,105.1,206
"217","UK",2040,"45-49",4582695,2343604,2239091,6.5,6.7,6.4,104.7,207
"218","UK",2040,"50-54",4614381,2354247,2260134,6.6,6.7,6.4,104.2,208
"219","UK",2040,"55-59",4230354,2156017,2074337,6,6.2,5.9,103.9,209
"220","UK",2040,"60-64",3704962,1873652,1831310,5.3,5.4,5.2,102.3,210
"221","UK",2040,"65-69",3760075,1873503,1886572,5.4,5.4,5.4,99.3,211
"222","UK",2040,"70-74",3875668,1875745,1999923,5.5,5.4,5.7,93.8,212
"223","UK",2040,"75-79",3387335,1550242,1837093,4.8,4.4,5.2,84.4,213
"224","UK",2040,"80-84",2389715,1051034,1338681,3.4,3,3.8,78.5,214
"225","UK",2040,"85-89",1502875,599896,902979,2.1,1.7,2.6,66.4,215
"226","UK",2040,"90-94",942530,330646,611884,1.3,0.9,1.7,54,216
"227","UK",2040,"95-99",338363,99910,238453,0.5,0.3,0.7,41.9,217
"228","UK",2040,"100+",102430,23217,79213,0.1,0.1,0.2,29.3,218
"230","UK",2045,"0-4",3703891,1898620,1805271,5.2,5.4,5.1,105.2,219
"231","UK",2045,"5-9",3699128,1896703,1802425,5.2,5.4,5.1,105.2,220
"232","UK",2045,"10-14",3704519,1899972,1804547,5.2,5.4,5.1,105.3,221
"233","UK",2045,"15-19",3898291,1996480,1901811,5.5,5.7,5.4,105,222
"234","UK",2045,"20-24",4243218,2166312,2076906,6,6.2,5.8,104.3,223
"235","UK",2045,"25-29",4449812,2270227,2179585,6.3,6.4,6.1,104.2,224
"236","UK",2045,"30-34",4485199,2292074,2193125,6.3,6.5,6.2,104.5,225
"237","UK",2045,"35-39",4482749,2293866,2188883,6.3,6.5,6.2,104.8,226
"238","UK",2045,"40-44",4190730,2150207,2040523,5.9,6.1,5.7,105.4,227
"239","UK",2045,"45-49",4326365,2215177,2111188,6.1,6.3,5.9,104.9,228
"240","UK",2045,"50-54",4523132,2305890,2217242,6.4,6.6,6.2,104,229
"241","UK",2045,"55-59",4524806,2297167,2227639,6.4,6.5,6.3,103.1,230
"242","UK",2045,"60-64",4101122,2072311,2028811,5.8,5.9,5.7,102.1,231
"243","UK",2045,"65-69",3531518,1763726,1767792,5,5,5,99.8,232
"244","UK",2045,"70-74",3484495,1703707,1780788,4.9,4.8,5,95.7,233
"245","UK",2045,"75-79",3417054,1601507,1815547,4.8,4.5,5.1,88.2,234
"246","UK",2045,"80-84",2768658,1202108,1566550,3.9,3.4,4.4,76.7,235
"247","UK",2045,"85-89",1727770,700013,1027757,2.4,2,2.9,68.1,236
"248","UK",2045,"90-94",907684,319727,587957,1.3,0.9,1.7,54.4,237
"249","UK",2045,"95-99",440640,128915,311725,0.6,0.4,0.9,41.4,238
"250","UK",2045,"100+",131471,29250,102221,0.2,0.1,0.3,28.6,239
"252","UK",2050,"0-4",3669635,1881098,1788537,5.2,5.3,5,105.2,240
"253","UK",2050,"5-9",3717468,1906153,1811315,5.2,5.4,5.1,105.2,241
"254","UK",2050,"10-14",3713266,1904513,1808753,5.2,5.4,5.1,105.3,242
"255","UK",2050,"15-19",3832959,1963088,1869871,5.4,5.5,5.2,105,243
"256","UK",2050,"20-24",4138872,2113008,2025864,5.8,6,5.7,104.3,244
"257","UK",2050,"25-29",4399288,2244552,2154736,6.2,6.3,6,104.2,245
"258","UK",2050,"30-34",4522095,2311157,2210938,6.4,6.5,6.2,104.5,246
"259","UK",2050,"35-39",4554527,2331426,2223101,6.4,6.6,6.2,104.9,247
"260","UK",2050,"40-44",4545646,2329557,2216089,6.4,6.6,6.2,105.1,248
"261","UK",2050,"45-49",4198824,2153192,2045632,5.9,6.1,5.7,105.3,249
"262","UK",2050,"50-54",4270727,2179824,2090903,6,6.2,5.8,104.3,250
"263","UK",2050,"55-59",4436475,2250579,2185896,6.2,6.4,6.1,103,251
"264","UK",2050,"60-64",4389752,2209723,2180029,6.2,6.2,6.1,101.4,252
"265","UK",2050,"65-69",3912908,1952772,1960136,5.5,5.5,5.5,99.6,253
"266","UK",2050,"70-74",3280617,1608606,1672011,4.6,4.5,4.7,96.2,254
"267","UK",2050,"75-79",3078137,1458343,1619794,4.3,4.1,4.5,90,255
"268","UK",2050,"80-84",2801476,1247442,1554034,3.9,3.5,4.3,80.3,256
"269","UK",2050,"85-89",2020934,807671,1213263,2.8,2.3,3.4,66.6,257
"270","UK",2050,"90-94",1060612,379410,681202,1.5,1.1,1.9,55.7,258
"271","UK",2050,"95-99",435010,127410,307600,0.6,0.4,0.9,41.4,259
"272","UK",2050,"100+",174569,37998,136571,0.2,0.1,0.4,27.8,260
"287","MX",1980,"0-4",10894071,5546140,5347931,15.9,16.4,15.5,103.7,1
"331","MX",1980,"5-9",10322504,5250683,5071821,15.1,15.5,14.7,103.5,2
"410","MX",1980,"10-14",9017531,4497708,4519823,13.2,13.3,13.1,99.5,3
"510","MX",1980,"15-19",7602709,3722048,3880661,11.1,11,11.3,95.9,4
"610","MX",1980,"20-24",6271300,3046951,3224349,9.2,9,9.4,94.5,5
"710","MX",1980,"25-29",4765732,2319881,2445851,7,6.8,7.1,94.8,6
"810","MX",1980,"30-34",3916108,1909639,2006469,5.7,5.6,5.8,95.2,7
"9","MX",1980,"35-39",3359445,1650312,1709133,4.9,4.9,5,96.6,8
"1010","MX",1980,"40-44",2820719,1387491,1433228,4.1,4.1,4.2,96.8,9
"1110","MX",1980,"45-49",2315703,1133966,1181737,3.4,3.3,3.4,96,10
"1210","MX",1980,"50-54",1882936,922764,960172,2.8,2.7,2.8,96.1,11
"1310","MX",1980,"55-59",1447065,715758,731307,2.1,2.1,2.1,97.9,12
"1410","MX",1980,"60-64",1145743,564306,581437,1.7,1.7,1.7,97.1,13
"1510","MX",1980,"65-69",894488,434210,460278,1.3,1.3,1.3,94.3,14
"1610","MX",1980,"70-74",693300,325472,367828,1,1,1.1,88.5,15
"1710","MX",1980,"75-79",482508,229683,252825,0.7,0.7,0.7,90.8,16
"1810","MX",1980,"80-84",286092,129935,156157,0.4,0.4,0.5,83.2,17
"1910","MX",1980,"85-89",147297,65506,81791,0.2,0.2,0.2,80.1,18
"2010","MX",1980,"90-94",60019,26438,33581,0.1,0.1,0.1,78.7,19
"2110","MX",1980,"95-99",17908,7978,9930,0,0,0,80.3,20
"2210","MX",1980,"100+",4301,2011,2290,0,0,0,87.8,21
"2410","MX",1985,"0-4",10992596,5600453,5392143,14.4,14.8,13.9,103.9,22
"2510","MX",1985,"5-9",10678099,5428478,5249621,13.9,14.3,13.6,103.4,23
"2610","MX",1985,"10-14",10194706,5177634,5017072,13.3,13.7,13,103.2,24
"2710","MX",1985,"15-19",8734395,4314876,4419519,11.4,11.4,11.4,97.6,25
"2810","MX",1985,"20-24",7280791,3517654,3763137,9.5,9.3,9.7,93.5,26
"2910","MX",1985,"25-29",6067927,2921575,3146352,7.9,7.7,8.1,92.9,27
"309","MX",1985,"30-34",4637077,2239252,2397825,6.1,5.9,6.2,93.4,28
"31","MX",1985,"35-39",3815107,1845927,1969180,5,4.9,5.1,93.7,29
"3210","MX",1985,"40-44",3265624,1590775,1674849,4.3,4.2,4.3,95,30
"332","MX",1985,"45-49",2730243,1331019,1399224,3.6,3.5,3.6,95.1,31
"341","MX",1985,"50-54",2221412,1076833,1144579,2.9,2.8,3,94.1,32
"351","MX",1985,"55-59",1781639,863326,918313,2.3,2.3,2.4,94,33
"361","MX",1985,"60-64",1339466,653045,686421,1.7,1.7,1.8,95.1,34
"371","MX",1985,"65-69",1027993,497311,530682,1.3,1.3,1.4,93.7,35
"381","MX",1985,"70-74",760108,360710,399398,1,1,1,90.3,36
"391","MX",1985,"75-79",543567,248007,295560,0.7,0.7,0.8,83.9,37
"401","MX",1985,"80-84",324144,148329,175815,0.4,0.4,0.5,84.4,38
"411","MX",1985,"85-89",144829,62219,82610,0.2,0.2,0.2,75.3,39
"421","MX",1985,"90-94",48445,20048,28397,0.1,0.1,0.1,70.6,40
"431","MX",1985,"95-99",10844,4405,6439,0,0,0,68.4,41
"441","MX",1985,"100+",1775,742,1033,0,0,0,71.8,42
"461","MX",1990,"0-4",11349459,5790617,5558842,13.4,13.8,13,104.2,43
"471","MX",1990,"5-9",10735823,5461867,5273956,12.7,13.1,12.3,103.6,44
"481","MX",1990,"10-14",10509946,5334483,5175463,12.4,12.8,12.1,103.1,45
"491","MX",1990,"15-19",9834867,4954964,4879903,11.6,11.9,11.4,101.5,46
"501","MX",1990,"20-24",8271961,4035817,4236144,9.8,9.7,9.9,95.3,47
"511","MX",1990,"25-29",6976112,3342980,3633132,8.2,8,8.5,92,48
"521","MX",1990,"30-34",5879875,2809801,3070074,6.9,6.7,7.2,91.5,49
"53","MX",1990,"35-39",4512146,2163064,2349082,5.3,5.2,5.5,92.1,50
"541","MX",1990,"40-44",3709061,1780186,1928875,4.4,4.3,4.5,92.3,51
"551","MX",1990,"45-49",3166371,1529695,1636676,3.7,3.7,3.8,93.5,52
"561","MX",1990,"50-54",2627522,1269169,1358353,3.1,3,3.2,93.4,53
"571","MX",1990,"55-59",2108637,1011282,1097355,2.5,2.4,2.6,92.2,54
"581","MX",1990,"60-64",1658068,793341,864727,2,1.9,2,91.7,55
"591","MX",1990,"65-69",1207635,579123,628512,1.4,1.4,1.5,92.1,56
"601","MX",1990,"70-74",885928,419521,466407,1,1,1.1,89.9,57
"611","MX",1990,"75-79",605176,279505,325671,0.7,0.7,0.8,85.8,58
"621","MX",1990,"80-84",369323,161805,207518,0.4,0.4,0.5,78,59
"631","MX",1990,"85-89",167010,71941,95069,0.2,0.2,0.2,75.7,60
"641","MX",1990,"90-94",49085,19515,29570,0.1,0,0.1,66,61
"651","MX",1990,"95-99",9157,3470,5687,0,0,0,61,62
"661","MX",1990,"100+",1080,406,674,0,0,0,60.2,63
"681","MX",1995,"0-4",11535586,5889840,5645746,12.5,12.9,12,104.3,64
"691","MX",1995,"5-9",11081751,5649744,5432007,12,12.4,11.6,104,65
"701","MX",1995,"10-14",10549229,5359270,5189959,11.4,11.7,11.1,103.3,66
"711","MX",1995,"15-19",10133230,5104091,5029139,10.9,11.2,10.7,101.5,67
"721","MX",1995,"20-24",9331486,4661999,4669487,10.1,10.2,10,99.8,68
"731","MX",1995,"25-29",7958873,3867124,4091749,8.6,8.5,8.7,94.5,69
"741","MX",1995,"30-34",6771679,3229253,3542426,7.3,7.1,7.6,91.2,70
"75","MX",1995,"35-39",5733077,2724765,3008312,6.2,6,6.4,90.6,71
"761","MX",1995,"40-44",4396396,2095887,2300509,4.7,4.6,4.9,91.1,72
"771","MX",1995,"45-49",3602037,1718017,1884020,3.9,3.8,4,91.2,73
"781","MX",1995,"50-54",3055074,1464876,1590198,3.3,3.2,3.4,92.1,74
"791","MX",1995,"55-59",2501686,1197085,1304601,2.7,2.6,2.8,91.8,75
"801","MX",1995,"60-64",1969200,933764,1035436,2.1,2,2.2,90.2,76
"811","MX",1995,"65-69",1505554,709705,795849,1.6,1.6,1.7,89.2,77
"821","MX",1995,"70-74",1047060,492417,554643,1.1,1.1,1.2,88.8,78
"831","MX",1995,"75-79",718400,332157,386243,0.8,0.7,0.8,86,79
"841","MX",1995,"80-84",424632,189880,234752,0.5,0.4,0.5,80.9,80
"851","MX",1995,"85-89",198302,82633,115669,0.2,0.2,0.2,71.4,81
"861","MX",1995,"90-94",59776,24043,35733,0.1,0.1,0.1,67.3,82
"871","MX",1995,"95-99",9868,3628,6240,0,0,0,58.1,83
"881","MX",1995,"100+",943,333,610,0,0,0,54.6,84
"901","MX",2000,"0-4",11490587,5869102,5621485,11.5,11.9,11.1,104.4,85
"911","MX",2000,"5-9",11260532,5743950,5516582,11.3,11.7,10.9,104.1,86
"921","MX",2000,"10-14",10897862,5549292,5348570,10.9,11.3,10.6,103.8,87
"931","MX",2000,"15-19",10162052,5111139,5050913,10.2,10.4,10,101.2,88
"941","MX",2000,"20-24",9505993,4703008,4802985,9.5,9.6,9.5,97.9,89
"951","MX",2000,"25-29",8878747,4383962,4494785,8.9,8.9,8.9,97.5,90
"961","MX",2000,"30-34",7667107,3690146,3976961,7.7,7.5,7.9,92.8,91
"97","MX",2000,"35-39",6571241,3105082,3466159,6.6,6.3,6.8,89.6,92
"981","MX",2000,"40-44",5571174,2626715,2944459,5.6,5.3,5.8,89.2,93
"991","MX",2000,"45-49",4257874,2012082,2245792,4.3,4.1,4.4,89.6,94
"1001","MX",2000,"50-54",3470395,1641703,1828692,3.5,3.3,3.6,89.8,95
"1011","MX",2000,"55-59",2907745,1382213,1525532,2.9,2.8,3,90.6,96
"1021","MX",2000,"60-64",2339756,1107033,1232723,2.3,2.3,2.4,89.8,97
"1031","MX",2000,"65-69",1790619,837722,952897,1.8,1.7,1.9,87.9,98
"1041","MX",2000,"70-74",1310013,606539,703474,1.3,1.2,1.4,86.2,99
"1051","MX",2000,"75-79",853222,392018,461204,0.9,0.8,0.9,85,100
"1061","MX",2000,"80-84",515003,231242,283761,0.5,0.5,0.6,81.5,101
"1071","MX",2000,"85-89",237137,101449,135688,0.2,0.2,0.3,74.8,102
"1081","MX",2000,"90-94",74599,29242,45357,0.1,0.1,0.1,64.5,103
"1091","MX",2000,"95-99",12686,4764,7922,0,0,0,60.1,104
"1101","MX",2000,"100+",1090,357,733,0,0,0,48.7,105
"1121","MX",2005,"0-4",11323444,5791355,5532089,10.6,11.1,10.2,104.7,106
"1131","MX",2005,"5-9",11278546,5756784,5521762,10.6,11,10.2,104.3,107
"1141","MX",2005,"10-14",11062578,5626462,5436116,10.4,10.7,10,103.5,108
"1151","MX",2005,"15-19",10612876,5370307,5242569,10,10.3,9.7,102.4,109
"1161","MX",2005,"20-24",9671231,4810108,4861123,9.1,9.2,9,99,110
"1171","MX",2005,"25-29",8990203,4385496,4604707,8.4,8.4,8.5,95.2,111
"1181","MX",2005,"30-34",8501855,4148823,4353032,8,7.9,8,95.3,112
"119","MX",2005,"35-39",7380087,3526733,3853354,6.9,6.7,7.1,91.5,113
"1201","MX",2005,"40-44",6409072,3009268,3399804,6,5.7,6.3,88.5,114
"1211","MX",2005,"45-49",5391305,2518844,2872461,5.1,4.8,5.3,87.7,115
"1221","MX",2005,"50-54",4096977,1909081,2187896,3.8,3.6,4,87.3,116
"1231","MX",2005,"55-59",3302291,1549392,1752899,3.1,3,3.2,88.4,117
"1241","MX",2005,"60-64",2716941,1279498,1437443,2.5,2.4,2.7,89,118
"1251","MX",2005,"65-69",2143696,997979,1145717,2,1.9,2.1,87.1,119
"1261","MX",2005,"70-74",1576770,727481,849289,1.5,1.4,1.6,85.7,120
"1271","MX",2005,"75-79",1079784,489454,590330,1,0.9,1.1,82.9,121
"1281","MX",2005,"80-84",622047,276772,345275,0.6,0.5,0.6,80.2,122
"1291","MX",2005,"85-89",298851,129192,169659,0.3,0.2,0.3,76.1,123
"1301","MX",2005,"90-94",97598,39539,58059,0.1,0.1,0.1,68.1,124
"1311","MX",2005,"95-99",18282,7062,11220,0,0,0,62.9,125
"1321","MX",2005,"100+",1929,824,1105,0,0,0,74.6,126
"1341","MX",2010,"0-4",11239436,5749987,5489449,9.9,10.3,9.5,104.7,127
"1351","MX",2010,"5-9",11243341,5752570,5490771,9.9,10.3,9.5,104.8,128
"1361","MX",2010,"10-14",11167887,5692204,5475683,9.8,10.2,9.4,104,129
"1371","MX",2010,"15-19",10896044,5520349,5375695,9.6,9.9,9.3,102.7,130
"1381","MX",2010,"20-24",10383623,5217735,5165888,9.1,9.3,8.9,101,131
"1391","MX",2010,"25-29",9405721,4631545,4774176,8.2,8.3,8.2,97,132
"1401","MX",2010,"30-34",8745861,4219790,4526071,7.7,7.5,7.8,93.2,133
"141","MX",2010,"35-39",8286302,4004048,4282254,7.3,7.2,7.4,93.5,134
"1421","MX",2010,"40-44",7208062,3414275,3793787,6.3,6.1,6.5,90,135
"1431","MX",2010,"45-49",6259498,2918056,3341442,5.5,5.2,5.8,87.3,136
"1441","MX",2010,"50-54",5232992,2427340,2805652,4.6,4.3,4.8,86.5,137
"1451","MX",2010,"55-59",3926473,1816413,2110060,3.4,3.2,3.6,86.1,138
"1461","MX",2010,"60-64",3101105,1442708,1658397,2.7,2.6,2.9,87,139
"1471","MX",2010,"65-69",2478020,1153062,1324958,2.2,2.1,2.3,87,140
"1481","MX",2010,"70-74",1884887,864323,1020564,1.7,1.5,1.8,84.7,141
"1491","MX",2010,"75-79",1303157,590080,713077,1.1,1.1,1.2,82.8,142
"1501","MX",2010,"80-84",794936,350191,444745,0.7,0.6,0.8,78.7,143
"1511","MX",2010,"85-89",361767,154517,207250,0.3,0.3,0.4,74.6,144
"1521","MX",2010,"90-94",117638,48402,69236,0.1,0.1,0.1,69.9,145
"1531","MX",2010,"95-99",22380,8784,13596,0,0,0,64.6,146
"1541","MX",2010,"100+",2310,973,1337,0,0,0,72.8,147
"1561","MX",2015,"0-4",11244007,5753392,5490615,9.2,9.6,8.9,104.8,148
"1571","MX",2015,"5-9",11180113,5718574,5461539,9.2,9.6,8.8,104.7,149
"1581","MX",2015,"10-14",11166544,5706361,5460183,9.2,9.6,8.8,104.5,150
"1591","MX",2015,"15-19",11054296,5618908,5435388,9.1,9.4,8.8,103.4,151
"1601","MX",2015,"20-24",10732714,5408656,5324058,8.8,9.1,8.6,101.6,152
"1611","MX",2015,"25-29",10203145,5091053,5112092,8.4,8.5,8.2,99.6,153
"1621","MX",2015,"30-34",9238447,4513592,4724855,7.6,7.6,7.6,95.5,154
"163","MX",2015,"35-39",8595879,4115290,4480589,7.1,6.9,7.2,91.8,155
"1641","MX",2015,"40-44",8151639,3912839,4238800,6.7,6.6,6.8,92.3,156
"1651","MX",2015,"45-49",7072624,3328785,3743839,5.8,5.6,6,88.9,157
"1661","MX",2015,"50-54",6100256,2823786,3276470,5,4.7,5.3,86.2,158
"1671","MX",2015,"55-59",5041034,2318798,2722236,4.1,3.9,4.4,85.2,159
"1681","MX",2015,"60-64",3711078,1698923,2012155,3,2.8,3.2,84.4,160
"1691","MX",2015,"65-69",2852547,1309000,1543547,2.3,2.2,2.5,84.8,161
"1701","MX",2015,"70-74",2199013,1005109,1193904,1.8,1.7,1.9,84.2,162
"1711","MX",2015,"75-79",1570563,702356,868207,1.3,1.2,1.4,80.9,163
"1721","MX",2015,"80-84",968100,423504,544596,0.8,0.7,0.9,77.8,164
"1731","MX",2015,"85-89",474463,198581,275882,0.4,0.3,0.4,72,165
"1741","MX",2015,"90-94",148792,59211,89581,0.1,0.1,0.1,66.1,166
"1751","MX",2015,"95-99",28595,10953,17642,0,0,0,62.1,167
"1761","MX",2015,"100+",2960,1159,1801,0,0,0,64.4,168
"1781","MX",2020,"0-4",11223270,5744034,5479236,8.7,9.1,8.4,104.8,169
"1791","MX",2020,"5-9",11170025,5716008,5454017,8.7,9.1,8.3,104.8,170
"1801","MX",2020,"10-14",11067671,5651157,5416514,8.6,9,8.3,104.3,171
"1811","MX",2020,"15-19",11002622,5601157,5401465,8.6,8.9,8.2,103.7,172
"1821","MX",2020,"20-24",10829422,5468103,5361319,8.4,8.7,8.2,102,173
"1831","MX",2020,"25-29",10483064,5238322,5244742,8.1,8.3,8,99.9,174
"1841","MX",2020,"30-34",9973157,4933248,5039909,7.8,7.8,7.7,97.9,175
"185","MX",2020,"35-39",9042984,4380891,4662093,7,6.9,7.1,94,176
"1861","MX",2020,"40-44",8435123,4009724,4425399,6.6,6.4,6.7,90.6,177
"1871","MX",2020,"45-49",7996495,3816036,4180459,6.2,6.1,6.4,91.3,178
"1881","MX",2020,"50-54",6897120,3226002,3671118,5.4,5.1,5.6,87.9,179
"1891","MX",2020,"55-59",5885425,2703652,3181773,4.6,4.3,4.8,85,180
"1901","MX",2020,"60-64",4777799,2175396,2602403,3.7,3.5,4,83.6,181
"1911","MX",2020,"65-69",3426865,1547062,1879803,2.7,2.5,2.9,82.3,182
"1921","MX",2020,"70-74",2546376,1147644,1398732,2,1.8,2.1,82,183
"1931","MX",2020,"75-79",1850617,824477,1026140,1.4,1.3,1.6,80.3,184
"1941","MX",2020,"80-84",1188488,511460,677028,0.9,0.8,1,75.5,185
"1951","MX",2020,"85-89",598357,246626,351731,0.5,0.4,0.5,70.1,186
"1961","MX",2020,"90-94",209211,80186,129025,0.2,0.1,0.2,62.1,187
"1971","MX",2020,"95-99",40960,14697,26263,0,0,0,56,188
"1981","MX",2020,"100+",4514,1655,2859,0,0,0,57.9,189
"2001","MX",2025,"0-4",11015291,5638758,5376533,8.2,8.5,7.8,104.9,190
"2011","MX",2025,"5-9",11143490,5704005,5439485,8.3,8.6,7.9,104.9,191
"2021","MX",2025,"10-14",11042528,5639334,5403194,8.2,8.5,7.8,104.4,192
"2031","MX",2025,"15-19",10884205,5533482,5350723,8.1,8.4,7.8,103.4,193
"2041","MX",2025,"20-24",10755033,5436163,5318870,8,8.2,7.7,102.2,194
"2051","MX",2025,"25-29",10556393,5283559,5272834,7.8,8,7.7,100.2,195
"2061","MX",2025,"30-34",10234595,5069719,5164876,7.6,7.7,7.5,98.2,196
"207","MX",2025,"35-39",9761236,4790350,4970886,7.2,7.3,7.2,96.4,197
"2081","MX",2025,"40-44",8874950,4271354,4603596,6.6,6.5,6.7,92.8,198
"2091","MX",2025,"45-49",8280696,3914994,4365702,6.1,5.9,6.3,89.7,199
"2101","MX",2025,"50-54",7809511,3705917,4103594,5.8,5.6,6,90.3,200
"2111","MX",2025,"55-59",6668365,3096939,3571426,4.9,4.7,5.2,86.7,201
"2121","MX",2025,"60-64",5595965,2544404,3051561,4.2,3.9,4.4,83.4,202
"2131","MX",2025,"65-69",4434533,1990011,2444522,3.3,3,3.6,81.4,203
"2141","MX",2025,"70-74",3079810,1364252,1715558,2.3,2.1,2.5,79.5,204
"2151","MX",2025,"75-79",2163234,948515,1214719,1.6,1.4,1.8,78.1,205
"2161","MX",2025,"80-84",1421383,607202,814181,1.1,0.9,1.2,74.6,206
"2171","MX",2025,"85-89",757156,304504,452652,0.6,0.5,0.7,67.3,207
"2181","MX",2025,"90-94",279466,103776,175690,0.2,0.2,0.3,59.1,208
"2191","MX",2025,"95-99",63430,21188,42242,0,0,0.1,50.2,209
"2201","MX",2025,"100+",7430,2394,5036,0,0,0,47.5,210
"2221","MX",2030,"0-4",10650170,5453171,5196999,7.6,8,7.3,104.9,211
"2231","MX",2030,"5-9",10929297,5595928,5333369,7.8,8.2,7.4,104.9,212
"2241","MX",2030,"10-14",11000581,5617934,5382647,7.9,8.2,7.5,104.4,213
"2251","MX",2030,"15-19",10838759,5508757,5330002,7.7,8.1,7.4,103.4,214
"2261","MX",2030,"20-24",10613277,5354003,5259274,7.6,7.8,7.3,101.8,215
"2271","MX",2030,"25-29",10458301,5237310,5220991,7.5,7.7,7.3,100.3,216
"2281","MX",2030,"30-34",10289286,5104136,5185150,7.3,7.5,7.2,98.4,217
"229","MX",2030,"35-39",10009442,4919452,5089990,7.1,7.2,7.1,96.6,218
"2301","MX",2030,"40-44",9582758,4674595,4908163,6.8,6.8,6.9,95.2,219
"2311","MX",2030,"45-49",8718357,4175765,4542592,6.2,6.1,6.3,91.9,220
"2321","MX",2030,"50-54",8095932,3807896,4288036,5.8,5.6,6,88.8,221
"2331","MX",2030,"55-59",7564801,3566134,3998667,5.4,5.2,5.6,89.2,222
"2341","MX",2030,"60-64",6357432,2923091,3434341,4.5,4.3,4.8,85.1,223
"2351","MX",2030,"65-69",5214987,2336459,2878528,3.7,3.4,4,81.2,224
"2361","MX",2030,"70-74",4008162,1763370,2244792,2.9,2.6,3.1,78.6,225
"2371","MX",2030,"75-79",2639488,1135619,1503869,1.9,1.7,2.1,75.5,226
"2381","MX",2030,"80-84",1685125,706121,979004,1.2,1,1.4,72.1,227
"2391","MX",2030,"85-89",928964,368732,560232,0.7,0.5,0.8,65.8,228
"2401","MX",2030,"90-94",372225,133073,239152,0.3,0.2,0.3,55.6,229
"2411","MX",2030,"95-99",92143,29028,63115,0.1,0,0.1,46,230
"2421","MX",2030,"100+",12943,3645,9298,0,0,0,39.2,231
"2441","MX",2035,"0-4",10191962,5219601,4972361,7.1,7.4,6.7,105,232
"2451","MX",2035,"5-9",10562660,5410155,5152505,7.3,7.7,7,105,233
"2461","MX",2035,"10-14",10779816,5506188,5273628,7.5,7.8,7.1,104.4,234
"2471","MX",2035,"15-19",10787882,5482072,5305810,7.5,7.8,7.2,103.3,235
"2481","MX",2035,"20-24",10558211,5323941,5234270,7.3,7.6,7.1,101.7,236
"2491","MX",2035,"25-29",10307130,5150442,5156688,7.1,7.3,7,99.9,237
"2501","MX",2035,"30-34",10184649,5055157,5129492,7.1,7.2,6.9,98.6,238
"251","MX",2035,"35-39",10060426,4952781,5107645,7,7,6.9,97,239
"2521","MX",2035,"40-44",9829667,4803904,5025763,6.8,6.8,6.8,95.6,240
"2531","MX",2035,"45-49",9422492,4576683,4845809,6.5,6.5,6.6,94.4,241
"2541","MX",2035,"50-54",8534106,4068730,4465376,5.9,5.8,6,91.1,242
"2551","MX",2035,"55-59",7855300,3671490,4183810,5.4,5.2,5.7,87.8,243
"2561","MX",2035,"60-64",7231011,3375551,3855460,5,4.8,5.2,87.6,244
"2571","MX",2035,"65-69",5946158,2694311,3251847,4.1,3.8,4.4,82.9,245
"2581","MX",2035,"70-74",4736025,2079042,2656983,3.3,3,3.6,78.2,246
"2591","MX",2035,"75-79",3458045,1475341,1982704,2.4,2.1,2.7,74.4,247
"2601","MX",2035,"80-84",2082705,853854,1228851,1.4,1.2,1.7,69.5,248
"2611","MX",2035,"85-89",1128046,436750,691296,0.8,0.6,0.9,63.2,249
"2621","MX",2035,"90-94",476624,166547,310077,0.3,0.2,0.4,53.7,250
"2631","MX",2035,"95-99",132077,39134,92943,0.1,0.1,0.1,42.1,251
"2641","MX",2035,"100+",21112,5293,15819,0,0,0,33.5,252
"2661","MX",2040,"0-4",9704259,4970743,4733516,6.6,6.9,6.3,105,253
"2671","MX",2040,"5-9",10106161,5177864,4928297,6.9,7.2,6.5,105.1,254
"2681","MX",2040,"10-14",10414064,5321407,5092657,7.1,7.4,6.7,104.5,255
"2691","MX",2040,"15-19",10569065,5372280,5196785,7.2,7.5,6.9,103.4,256
"2701","MX",2040,"20-24",10510726,5300614,5210112,7.1,7.4,6.9,101.7,257
"2711","MX",2040,"25-29",10256713,5124947,5131766,7,7.1,6.8,99.9,258
"2721","MX",2040,"30-34",10039655,4974011,5065644,6.8,6.9,6.7,98.2,259
"273","MX",2040,"35-39",9962344,4909503,5052841,6.8,6.8,6.7,97.2,260
"274","MX",2040,"40-44",9886805,4842217,5044588,6.7,6.7,6.7,96,261
"275","MX",2040,"45-49",9674429,4709728,4964701,6.6,6.6,6.6,94.9,262
"276","MX",2040,"50-54",9235257,4466987,4768270,6.3,6.2,6.3,93.7,263
"277","MX",2040,"55-59",8294798,3931650,4363148,5.6,5.5,5.8,90.1,264
"278","MX",2040,"60-64",7525913,3483379,4042534,5.1,4.9,5.3,86.2,265
"279","MX",2040,"65-69",6786396,3122519,3663877,4.6,4.4,4.8,85.2,266
"280","MX",2040,"70-74",5422475,2407271,3015204,3.7,3.4,4,79.8,267
"281","MX",2040,"75-79",4109324,1747429,2361895,2.8,2.4,3.1,74,268
"282","MX",2040,"80-84",2755113,1117566,1637547,1.9,1.6,2.2,68.2,269
"283","MX",2040,"85-89",1425155,537526,887629,1,0.7,1.2,60.6,270
"284","MX",2040,"90-94",602157,203471,398686,0.4,0.3,0.5,51,271
"285","MX",2040,"95-99",179859,51243,128616,0.1,0.1,0.2,39.8,272
"286","MX",2040,"100+",33536,7541,25995,0,0,0,29,273
"288","MX",2045,"0-4",9205170,4715966,4489204,6.2,6.5,5.8,105.1,274
"289","MX",2045,"5-9",9619795,4930085,4689710,6.4,6.8,6.1,105.1,275
"290","MX",2045,"10-14",9958292,5090033,4868259,6.7,7,6.3,104.6,276
"291","MX",2045,"15-19",10205073,5189360,5015713,6.8,7.1,6.5,103.5,277
"292","MX",2045,"20-24",10295225,5194172,5101053,6.9,7.1,6.6,101.8,278
"293","MX",2045,"25-29",10213050,5105541,5107509,6.8,7,6.6,100,279
"294","MX",2045,"30-34",9993874,4952998,5040876,6.7,6.8,6.6,98.3,280
"295","MX",2045,"35-39",9823051,4833433,4989618,6.6,6.7,6.5,96.9,281
"296","MX",2045,"40-44",9794944,4803954,4990990,6.5,6.6,6.5,96.3,282
"297","MX",2045,"45-49",9737806,4752574,4985232,6.5,6.5,6.5,95.3,283
"298","MX",2045,"50-54",9491940,4603215,4888725,6.3,6.3,6.4,94.2,284
"299","MX",2045,"55-59",8989459,4324224,4665235,6,5.9,6.1,92.7,285
"300","MX",2045,"60-64",7963743,3739687,4224056,5.3,5.1,5.5,88.5,286
"301","MX",2045,"65-69",7083057,3231248,3851809,4.7,4.4,5,83.9,287
"302","MX",2045,"70-74",6210920,2799944,3410976,4.2,3.9,4.4,82.1,288
"303","MX",2045,"75-79",4727922,2032705,2695217,3.2,2.8,3.5,75.4,289
"304","MX",2045,"80-84",3301525,1332738,1968787,2.2,1.8,2.6,67.7,290
"305","MX",2045,"85-89",1916953,713256,1203697,1.3,1,1.6,59.3,291
"306","MX",2045,"90-94",788683,257982,530701,0.5,0.4,0.7,48.6,292
"307","MX",2045,"95-99",240574,65389,175185,0.2,0.1,0.2,37.3,293
"308","MX",2045,"100+",50219,10456,39763,0,0,0.1,26.3,294
"310","MX",2050,"0-4",8673583,4444464,4229119,5.8,6.1,5.5,105.1,295
"311","MX",2050,"5-9",9121743,4676222,4445521,6.1,6.4,5.7,105.2,296
"312","MX",2050,"10-14",9472482,4843078,4629404,6.3,6.6,6,104.6,297
"313","MX",2050,"15-19",9750841,4959722,4791119,6.5,6.8,6.2,103.5,298
"314","MX",2050,"20-24",9934387,5014512,4919875,6.6,6.9,6.3,101.9,299
"315","MX",2050,"25-29",10001244,5002958,4998286,6.6,6.9,6.4,100.1,300
"316","MX",2050,"30-34",9953956,4937365,5016591,6.6,6.8,6.5,98.4,301
"317","MX",2050,"35-39",9781524,4816345,4965179,6.5,6.6,6.4,97,302
"318","MX",2050,"40-44",9661219,4732465,4928754,6.4,6.5,6.4,96,303
"319","MX",2050,"45-49",9652717,4719219,4933498,6.4,6.5,6.4,95.7,304
"320","MX",2050,"50-54",9562076,4650562,4911514,6.4,6.4,6.3,94.7,305
"321","MX",2050,"55-59",9250585,4462941,4787644,6.1,6.1,6.2,93.2,306
"322","MX",2050,"60-64",8645625,4121366,4524259,5.7,5.6,5.8,91.1,307
"323","MX",2050,"65-69",7514394,3479722,4034672,5,4.8,5.2,86.2,308
"324","MX",2050,"70-74",6502908,2906224,3596684,4.3,4,4.6,80.8,309
"325","MX",2050,"75-79",5437990,2373855,3064135,3.6,3.3,4,77.5,310
"326","MX",2050,"80-84",3825417,1560933,2264484,2.5,2.1,2.9,68.9,311
"327","MX",2050,"85-89",2329795,861018,1468777,1.5,1.2,1.9,58.6,312
"328","MX",2050,"90-94",1090297,350486,739811,0.7,0.5,1,47.4,313
"329","MX",2050,"95-99",331546,86409,245137,0.2,0.1,0.3,35.2,314
"330","MX",2050,"100+",73174,14136,59038,0,0,0.1,23.9,315
